<?xml version="1.0" encoding="UTF-8" standalone="no"?>
<!-- Created with Inkscape (http://www.inkscape.org/) -->

<svg
   width="297mm"
   height="210mm"
   viewBox="0 0 297 210"
   version="1.1"
   id="svg1"
   xml:space="preserve"
   inkscape:version="1.3.2 (091e20e, 2023-11-25, custom)"
   sodipodi:docname="logo.svg"
   xmlns:inkscape="http://www.inkscape.org/namespaces/inkscape"
   xmlns:sodipodi="http://sodipodi.sourceforge.net/DTD/sodipodi-0.dtd"
   xmlns="http://www.w3.org/2000/svg"
   xmlns:svg="http://www.w3.org/2000/svg"><sodipodi:namedview
     id="namedview1"
     pagecolor="#ffffff"
     bordercolor="#000000"
     borderopacity="0.25"
     inkscape:showpageshadow="2"
     inkscape:pageopacity="0.0"
     inkscape:pagecheckerboard="0"
     inkscape:deskcolor="#d1d1d1"
     inkscape:document-units="mm"
     showguides="true"
     inkscape:zoom="0.71622832"
     inkscape:cx="501.23681"
     inkscape:cy="578.72607"
     inkscape:window-width="1718"
     inkscape:window-height="1341"
     inkscape:window-x="1704"
     inkscape:window-y="0"
     inkscape:window-maximized="0"
     inkscape:current-layer="g5" /><defs
     id="defs1" /><g
     inkscape:label="Capa 1"
     inkscape:groupmode="layer"
     id="layer1"><g
       id="g5"
       transform="matrix(0.66681767,0,0,0.66681767,5.2455318,10.060441)"
       inkscape:export-filename="logo.png"
       inkscape:export-xdpi="96"
       inkscape:export-ydpi="96"><path
         style="fill:#fa6559;fill-opacity:1;stroke-width:0.440833"
         d="M 11.99196,50.328908 11.95764,50.238528 11.97613,28.972073 11.99462,7.7056176 H 33.29718 54.599739 V 29.044277 50.382944 l -21.286725,0.01819 -21.286728,0.0182 z m 9.09547,-4.214202 0.114226,-0.04383 V 41.571253 37.07163 l 0.04383,-0.114226 0.04383,-0.114226 h 9.834778 9.834776 l 0.08666,-0.08666 0.08666,-0.08666 v -2.690961 -2.69097 l -0.139673,-0.07476 -0.139675,-0.07476 h -9.781758 -9.781758 l -0.04383,-0.114233 -0.04383,-0.114226 V 24.033403 17.15686 l 0.09028,-0.122336 0.09026,-0.122335 14.478522,-0.01785 14.478521,-0.01785 v -2.455203 -2.45521 l -17.001588,-0.0182 -17.001585,-0.01821 -0.0574,0.09041 -0.0574,0.09041 -0.0011,16.948195 -0.0011,16.948196 0.126366,0.0736 0.126367,0.07361 2.250719,0.0022 2.250722,0.0022 z m 29.197839,-0.01581 0.09048,-0.05745 -0.01826,-12.379982 -0.01826,-12.37998 -12.403274,-0.01826 -12.403271,-0.01826 0.0189,2.798423 0.0189,2.798425 9.893054,0.03611 9.893052,0.0361 v 7.076782 7.076783 l -9.893052,0.0361 -9.893054,0.0361 -0.01904,2.450344 -0.01904,2.450345 0.09124,0.05791 0.09124,0.05791 H 37.954815 50.19476 Z"
         id="path1"
         inkscape:export-filename="logo_CUADRADO.png"
         inkscape:export-xdpi="96"
         inkscape:export-ydpi="96" /><path
         style="fill:#fa6559;fill-opacity:1;stroke-width:0.072309"
         d="m 32.54045,87.99953 -0.0056,-0.01483 0.003,-3.488294 0.003,-3.488296 h 3.494217 3.494218 v 3.500139 3.50014 l -3.491621,0.003 -3.49162,0.003 z m 1.491913,-0.691247 0.01874,-0.0072 v -0.738064 -0.738066 l 0.0072,-0.01873 0.0072,-0.01874 h 1.613179 1.613179 l 0.01421,-0.01422 0.01422,-0.01422 V 85.31765 84.876255 l -0.02291,-0.01227 -0.02291,-0.01227 h -1.604483 -1.604483 l -0.0072,-0.01874 -0.0072,-0.01874 v -1.127946 -1.127946 l 0.01481,-0.02007 0.01481,-0.02007 2.374884,-0.0029 2.374884,-0.0029 v -0.40273 -0.402723 l -2.788738,-0.003 -2.788737,-0.003 -0.0094,0.01483 -0.0094,0.01483 -1.81e-4,2.77998 -1.8e-4,2.779979 0.02073,0.01207 0.02073,0.01207 0.369181,3.28e-4 0.369182,3.28e-4 z m 4.789264,-0.0026 0.01484,-0.0094 -0.003,-2.030664 -0.003,-2.030664 -2.034485,-0.003 -2.034484,-0.003 0.0031,0.45902 0.0031,0.459021 1.622739,0.0059 1.622738,0.0059 v 1.16079 1.160791 l -1.622738,0.0059 -1.622739,0.0059 -0.0031,0.401926 -0.0031,0.401924 0.01497,0.0095 0.01497,0.0095 h 2.007692 2.007694 z"
         id="path1-1"
         inkscape:export-filename="favicon.png"
         inkscape:export-xdpi="96"
         inkscape:export-ydpi="96" /><g
         id="g76"
         transform="translate(-2.3807108,3.9798328)"
         inkscape:export-filename="logo.png"
         inkscape:export-xdpi="96"
         inkscape:export-ydpi="96"><text
           xml:space="preserve"
           style="font-style:normal;font-variant:normal;font-weight:900;font-stretch:normal;font-size:21.406px;line-height:0.8;font-family:Mulish;-inkscape-font-specification:'Mulish Heavy';fill:#000000;stroke-width:0.401363"
           x="64.48597"
           y="26.223579"
           id="text2"
           inkscape:export-filename="logo.png"
           inkscape:export-xdpi="96"
           inkscape:export-ydpi="96"><tspan
             style="font-style:normal;font-variant:normal;font-weight:900;font-stretch:normal;font-size:21.406px;line-height:0.8;font-family:Mulish;-inkscape-font-specification:'Mulish Heavy';stroke-width:0.401363"
             x="64.48597"
             y="26.223579"
             id="tspan4"
             sodipodi:role="line">FIRSTCOMMIT.DEV</tspan></text><text
           xml:space="preserve"
           style="font-style:normal;font-variant:normal;font-weight:900;font-stretch:normal;font-size:10.5539px;line-height:0.8;font-family:Mulish;-inkscape-font-specification:'Mulish Heavy';fill:#000000;stroke-width:0.444818"
           x="64.85363"
           y="39.183971"
           id="text2-3"
           inkscape:export-filename="logo.png"
           inkscape:export-xdpi="96"
           inkscape:export-ydpi="96"><tspan
             style="font-style:normal;font-variant:normal;font-weight:200;font-stretch:normal;font-size:10.5539px;line-height:0.8;font-family:Mulish;-inkscape-font-specification:'Mulish Ultra-Light';stroke-width:0.444818"
             x="64.85363"
             y="39.183971"
             id="tspan4-1"
             sodipodi:role="line">EL BLOG DE MIFULAPIRUS &amp; YAYITAZALE </tspan></text></g><g
         id="g3"
         transform="matrix(0.6928702,0,0,0.6928702,105.57199,29.463635)"
         style="stroke:#000000;stroke-opacity:1"><circle
           style="fill:#ffffff;fill-opacity:1;stroke:#000000;stroke-width:0.443847;stroke-opacity:1"
           id="path2"
           cx="215.66945"
           cy="202.35481"
           r="151.51695" /></g><path
         style="fill:#fa6559;fill-opacity:1;stroke-width:1.29978"
         d="m 192.23962,232.37279 -0.10119,-0.26654 0.0545,-62.70352 0.0545,-62.70351 h 62.80996 62.80996 v 62.91641 62.91641 l -62.76328,0.0536 -62.76328,0.0536 z m 26.81772,-12.42545 0.33679,-0.12913 v -13.26703 -13.267 l 0.12924,-0.3368 0.12923,-0.33677 h 28.99755 28.99754 l 0.25552,-0.25564 0.25551,-0.25563 v -7.93422 -7.93424 l -0.41182,-0.22055 -0.41183,-0.22054 h -28.84122 -28.84122 l -0.12924,-0.33684 -0.12922,-0.33677 V 154.84087 134.5656 l 0.26618,-0.36071 0.26613,-0.36069 42.68949,-0.0524 42.68949,-0.0528 v -7.23909 -7.23912 l -50.12868,-0.0536 -50.12867,-0.0536 -0.16924,0.26654 -0.16924,0.26654 -0.003,49.97124 -0.003,49.97126 0.37258,0.217 0.37259,0.21702 6.63618,0.006 6.63618,0.006 z m 86.08896,-0.0466 0.26683,-0.16924 -0.054,-36.50203 -0.054,-36.50201 -36.57068,-0.054 -36.57068,-0.054 0.0557,8.25109 0.0557,8.25106 29.16937,0.10644 29.16938,0.10644 v 20.86568 20.8657 l -29.16938,0.10644 -29.16937,0.10644 -0.0561,7.22476 -0.0561,7.22478 0.26902,0.17072 0.26902,0.17072 h 36.08908 36.0891 z"
         id="path1-4"
         inkscape:export-filename="logo_telegram.png"
         inkscape:export-xdpi="96"
         inkscape:export-ydpi="96" /></g></g></svg>
